
{
  "header": {
    "reportVersion": 1,
    "event": "Allocation failed - JavaScript heap out of memory",
    "trigger": "FatalError",
    "filename": "report.20200607.124716.5004.0.001.json",
    "dumpEventTime": "2020-06-07T12:47:16Z",
    "dumpEventTimeStamp": "1591523236594",
    "processId": 5004,
    "cwd": "C:\\Projects\\hfp-rust-world",
    "commandLine": [
      "C:\\Program Files\\nodejs\\node.exe",
      "index.js"
    ],
    "nodejsVersion": "v12.16.0",
    "wordSize": 64,
    "arch": "x64",
    "platform": "win32",
    "componentVersions": {
      "node": "12.16.0",
      "v8": "7.8.279.23-node.31",
      "uv": "1.34.0",
      "zlib": "1.2.11",
      "brotli": "1.0.7",
      "ares": "1.15.0",
      "modules": "72",
      "nghttp2": "1.40.0",
      "napi": "5",
      "llhttp": "2.0.4",
      "http_parser": "2.9.3",
      "openssl": "1.1.1d",
      "cldr": "35.1",
      "icu": "64.2",
      "tz": "2019c",
      "unicode": "12.1"
    },
    "release": {
      "name": "node",
      "lts": "Erbium",
      "headersUrl": "https://nodejs.org/download/release/v12.16.0/node-v12.16.0-headers.tar.gz",
      "sourceUrl": "https://nodejs.org/download/release/v12.16.0/node-v12.16.0.tar.gz",
      "libUrl": "https://nodejs.org/download/release/v12.16.0/win-x64/node.lib"
    },
    "osName": "Windows_NT",
    "osRelease": "10.0.18363",
    "osVersion": "Windows 10 Pro",
    "osMachine": "x86_64",
    "cpus": [
      {
        "model": "Intel(R) Core(TM) i7-3770 CPU @ 3.40GHz",
        "speed": 3400,
        "user": 4145531,
        "nice": 0,
        "sys": 2418046,
        "idle": 15258687,
        "irq": 551734
      },
      {
        "model": "Intel(R) Core(TM) i7-3770 CPU @ 3.40GHz",
        "speed": 3400,
        "user": 2726484,
        "nice": 0,
        "sys": 969828,
        "idle": 18125781,
        "irq": 87734
      },
      {
        "model": "Intel(R) Core(TM) i7-3770 CPU @ 3.40GHz",
        "speed": 3400,
        "user": 4787453,
        "nice": 0,
        "sys": 1430359,
        "idle": 15604281,
        "irq": 26515
      },
      {
        "model": "Intel(R) Core(TM) i7-3770 CPU @ 3.40GHz",
        "speed": 3400,
        "user": 3124656,
        "nice": 0,
        "sys": 657156,
        "idle": 18040281,
        "irq": 15781
      },
      {
        "model": "Intel(R) Core(TM) i7-3770 CPU @ 3.40GHz",
        "speed": 3400,
        "user": 4486640,
        "nice": 0,
        "sys": 1299906,
        "idle": 16035546,
        "irq": 21078
      },
      {
        "model": "Intel(R) Core(TM) i7-3770 CPU @ 3.40GHz",
        "speed": 3400,
        "user": 3294312,
        "nice": 0,
        "sys": 710578,
        "idle": 17817203,
        "irq": 11640
      },
      {
        "model": "Intel(R) Core(TM) i7-3770 CPU @ 3.40GHz",
        "speed": 3400,
        "user": 4190468,
        "nice": 0,
        "sys": 1027609,
        "idle": 16604015,
        "irq": 18468
      },
      {
        "model": "Intel(R) Core(TM) i7-3770 CPU @ 3.40GHz",
        "speed": 3400,
        "user": 4070093,
        "nice": 0,
        "sys": 1122281,
        "idle": 16629718,
        "irq": 9421
      }
    ],
    "networkInterfaces": [
      {
        "name": "Loopback Pseudo-Interface 1",
        "internal": true,
        "mac": "00:00:00:00:00:00",
        "address": "::1",
        "netmask": "ffff:ffff:ffff:ffff:ffff:ffff:ffff:ffff",
        "family": "IPv6",
        "scopeid": 0
      },
      {
        "name": "Loopback Pseudo-Interface 1",
        "internal": true,
        "mac": "00:00:00:00:00:00",
        "address": "127.0.0.1",
        "netmask": "255.0.0.0",
        "family": "IPv4"
      }
    ],
    "host": "DESKTOP-BAVU596"
  },
  "javascriptStack": {
    "message": "No stack.",
    "stack": [
      "Unavailable."
    ]
  },
  "nativeStack": [
    {
      "pc": "0x00007ff6945119f9",
      "symbol": "std::basic_ostream<char,std::char_traits<char> >::operator<<+10873"
    },
    {
      "pc": "0x00007ff694515e1c",
      "symbol": "std::basic_ostream<char,std::char_traits<char> >::operator<<+28316"
    },
    {
      "pc": "0x00007ff694514dd8",
      "symbol": "std::basic_ostream<char,std::char_traits<char> >::operator<<+24152"
    },
    {
      "pc": "0x00007ff69461364b",
      "symbol": "v8::base::CPU::has_sse+38363"
    },
    {
      "pc": "0x00007ff694e2a11e",
      "symbol": "v8::Isolate::ReportExternalAllocationLimitReached+94"
    },
    {
      "pc": "0x00007ff694e121f1",
      "symbol": "v8::SharedArrayBuffer::Externalize+833"
    },
    {
      "pc": "0x00007ff694cde74c",
      "symbol": "v8::internal::Heap::EphemeronKeyWriteBarrierFromCode+1436"
    },
    {
      "pc": "0x00007ff694ce99a0",
      "symbol": "v8::internal::Heap::ProtectUnprotectedMemoryChunks+1312"
    },
    {
      "pc": "0x00007ff694ce64c4",
      "symbol": "v8::internal::Heap::PageFlagsAreConsistent+3204"
    },
    {
      "pc": "0x00007ff694cdbce3",
      "symbol": "v8::internal::Heap::CollectGarbage+1283"
    },
    {
      "pc": "0x00007ff694cda354",
      "symbol": "v8::internal::Heap::AddRetainedMap+2452"
    },
    {
      "pc": "0x00007ff694cfb53d",
      "symbol": "v8::internal::Factory::NewFillerObject+61"
    },
    {
      "pc": "0x00007ff694a60e21",
      "symbol": "v8::internal::interpreter::JumpTableTargetOffsets::iterator::operator=+1665"
    },
    {
      "pc": "0x00007ff695274fad",
      "symbol": "v8::internal::SetupIsolateDelegate::SetupHeap+546637"
    },
    {
      "pc": "0x0000001ff357043c",
      "symbol": ""
    }
  ],
  "javascriptHeap": {
    "totalMemory": 2152374272,
    "totalCommittedMemory": 2152374272,
    "usedMemory": 2147171840,
    "availableMemory": 47539144,
    "memoryLimit": 2197815296,
    "heapSpaces": {
      "read_only_space": {
        "memorySize": 262144,
        "committedMemory": 262144,
        "capacity": 32808,
        "used": 32808,
        "available": 0
      },
      "new_space": {
        "memorySize": 2097152,
        "committedMemory": 2097152,
        "capacity": 1047456,
        "used": 329168,
        "available": 718288
      },
      "old_space": {
        "memorySize": 2099658752,
        "committedMemory": 2099658752,
        "capacity": 2097276336,
        "used": 2096943960,
        "available": 332376
      },
      "code_space": {
        "memorySize": 692224,
        "committedMemory": 692224,
        "capacity": 516224,
        "used": 516224,
        "available": 0
      },
      "map_space": {
        "memorySize": 20451328,
        "committedMemory": 20451328,
        "capacity": 20272640,
        "used": 20272640,
        "available": 0
      },
      "large_object_space": {
        "memorySize": 29163520,
        "committedMemory": 29163520,
        "capacity": 29074256,
        "used": 29074256,
        "available": 0
      },
      "code_large_object_space": {
        "memorySize": 49152,
        "committedMemory": 49152,
        "capacity": 2784,
        "used": 2784,
        "available": 0
      },
      "new_large_object_space": {
        "memorySize": 0,
        "committedMemory": 0,
        "capacity": 1047456,
        "used": 0,
        "available": 1047456
      }
    }
  },
  "resourceUsage": {
    "userCpuSeconds": 127.421,
    "kernelCpuSeconds": 2.375,
    "cpuConsumptionPercent": 136.627,
    "maxRss": 2261143552,
    "pageFaults": {
      "IORequired": 763976,
      "IONotRequired": 0
    },
    "fsActivity": {
      "reads": 1161,
      "writes": 178
    }
  },
  "libuv": [
  ],
  "environmentVariables": {
    "ALLUSERSPROFILE": "C:\\ProgramData",
    "APPDATA": "C:\\Users\\Hougan\\AppData\\Roaming",
    "BESIEGE_GAME_ASSEMBLIES": "C:/Program Files (x86)/Steam/steamapps/common/Besiege/Besiege_Data\\Managed/",
    "BESIEGE_UNITY_ASSEMBLIES": "C:/Program Files (x86)/Steam/steamapps/common/Besiege/Besiege_Data\\Managed/",
    "CLINK_DIR": "C:\\Program Files (x86)\\clink\\0.4.9",
    "COLORTERM": "truecolor",
    "COMMONPROGRAMFILES": "C:\\Program Files\\Common Files",
    "COMPUTERNAME": "DESKTOP-BAVU596",
    "COMSPEC": "C:\\Windows\\system32\\cmd.exe",
    "CommonProgramFiles(x86)": "C:\\Program Files (x86)\\Common Files",
    "CommonProgramW6432": "C:\\Program Files\\Common Files",
    "DriverData": "C:\\Windows\\System32\\Drivers\\DriverData",
    "EXEPATH": "C:\\Program Files\\Git\\bin",
    "GIT_ASKPASS": "c:\\Users\\Hougan\\AppData\\Local\\Programs\\Microsoft VS Code\\resources\\app\\extensions\\git\\dist\\askpass.sh",
    "HOME": "C:\\Users\\Hougan",
    "HOMEDRIVE": "C:",
    "HOMEPATH": "\\Users\\Hougan",
    "LANG": "ru_RU.UTF-8",
    "LOCALAPPDATA": "C:\\Users\\Hougan\\AppData\\Local",
    "LOGONSERVER": "\\\\DESKTOP-BAVU596",
    "MSYSTEM": "MINGW64",
    "NUMBER_OF_PROCESSORS": "8",
    "OS": "Windows_NT",
    "OneDrive": "C:\\Users\\Hougan\\OneDrive",
    "PATH": "C:\\Program Files\\Git\\mingw64\\bin;C:\\Program Files\\Git\\usr\\bin;C:\\Users\\Hougan\\bin;C:\\Windows\\system32;C:\\Windows;C:\\Windows\\System32\\Wbem;C:\\Windows\\System32\\WindowsPowerShell\\v1.0\\;C:\\Windows\\System32\\OpenSSH\\;C:\\Program Files\\TortoiseGit\\bin;C:\\Program Files\\Git\\cmd;C:\\Program Files\\PuTTY\\;C:\\Program Files\\nodejs\\;C:\\Program Files\\dotnet\\;C:\\Users\\Hougan\\AppData\\Local\\Microsoft\\WindowsApps;C:\\Users\\Hougan\\AppData\\Roaming\\npm;C:\\Users\\Hougan\\AppData\\Local\\Programs\\Microsoft VS Code\\bin;C:\\Users\\Hougan\\.dotnet\\tools",
    "PATHEXT": ".COM;.EXE;.BAT;.CMD;.VBS;.VBE;.JS;.JSE;.WSF;.WSH;.MSC",
    "PLINK_PROTOCOL": "ssh",
    "PROCESSOR_ARCHITECTURE": "AMD64",
    "PROCESSOR_IDENTIFIER": "Intel64 Family 6 Model 58 Stepping 9, GenuineIntel",
    "PROCESSOR_LEVEL": "6",
    "PROCESSOR_REVISION": "3a09",
    "PROGRAMFILES": "C:\\Program Files",
    "PS1": "\\[\\033]0;$TITLEPREFIX:$PWD\\007\\]\\n\\[\\033[32m\\]\\u@\\h \\[\\033[35m\\]$MSYSTEM \\[\\033[33m\\]\\w\\[\\033[36m\\]`__git_ps1`\\[\\033[0m\\]\\n$ ",
    "PSModulePath": "C:\\Program Files\\WindowsPowerShell\\Modules;C:\\Windows\\system32\\WindowsPowerShell\\v1.0\\Modules",
    "PUBLIC": "C:\\Users\\Public",
    "PWD": "C:/Projects/hfp-rust-world",
    "ProgramData": "C:\\ProgramData",
    "ProgramFiles(x86)": "C:\\Program Files (x86)",
    "ProgramW6432": "C:\\Program Files",
    "SESSIONNAME": "Console",
    "SHLVL": "1",
    "SYSTEMDRIVE": "C:",
    "SYSTEMROOT": "C:\\Windows",
    "TEMP": "C:\\Users\\Hougan\\AppData\\Local\\Temp",
    "TERM": "cygwin",
    "TERM_PROGRAM": "vscode",
    "TERM_PROGRAM_VERSION": "1.45.1",
    "TMP": "C:\\Users\\Hougan\\AppData\\Local\\Temp",
    "USERDOMAIN": "DESKTOP-BAVU596",
    "USERDOMAIN_ROAMINGPROFILE": "DESKTOP-BAVU596",
    "USERNAME": "Hougan",
    "USERPROFILE": "C:\\Users\\Hougan",
    "VSCODE_GIT_ASKPASS_MAIN": "c:\\Users\\Hougan\\AppData\\Local\\Programs\\Microsoft VS Code\\resources\\app\\extensions\\git\\dist\\askpass-main.js",
    "VSCODE_GIT_ASKPASS_NODE": "C:\\Users\\Hougan\\AppData\\Local\\Programs\\Microsoft VS Code\\Code.exe",
    "VSCODE_GIT_IPC_HANDLE": "\\\\.\\pipe\\vscode-git-a8bdc96e6f-sock",
    "WINDIR": "C:\\Windows",
    "_": "C:/Program Files/nodejs/node"
  },
  "sharedObjects": [
    "C:\\Program Files\\nodejs\\node.exe",
    "C:\\Windows\\SYSTEM32\\ntdll.dll",
    "C:\\Windows\\System32\\KERNEL32.DLL",
    "C:\\Windows\\System32\\KERNELBASE.dll",
    "C:\\Windows\\System32\\WS2_32.dll",
    "C:\\Windows\\System32\\RPCRT4.dll",
    "C:\\Windows\\SYSTEM32\\dbghelp.dll",
    "C:\\Windows\\System32\\ucrtbase.dll",
    "C:\\Windows\\System32\\PSAPI.DLL",
    "C:\\Windows\\System32\\ADVAPI32.dll",
    "C:\\Windows\\System32\\msvcrt.dll",
    "C:\\Windows\\SYSTEM32\\USERENV.dll",
    "C:\\Windows\\System32\\sechost.dll",
    "C:\\Windows\\SYSTEM32\\IPHLPAPI.DLL",
    "C:\\Windows\\System32\\profapi.dll",
    "C:\\Windows\\System32\\USER32.dll",
    "C:\\Windows\\System32\\win32u.dll",
    "C:\\Windows\\System32\\GDI32.dll",
    "C:\\Windows\\System32\\gdi32full.dll",
    "C:\\Windows\\System32\\msvcp_win.dll",
    "C:\\Windows\\System32\\CRYPT32.dll",
    "C:\\Windows\\System32\\MSASN1.dll",
    "C:\\Windows\\System32\\bcrypt.dll",
    "C:\\Windows\\SYSTEM32\\WINMM.dll",
    "C:\\Windows\\SYSTEM32\\WINMMBASE.dll",
    "C:\\Windows\\System32\\cfgmgr32.dll",
    "C:\\Windows\\System32\\bcryptPrimitives.dll",
    "C:\\Windows\\System32\\IMM32.DLL",
    "C:\\Windows\\System32\\powrprof.dll",
    "C:\\Windows\\System32\\UMPDC.dll",
    "C:\\Windows\\SYSTEM32\\CRYPTBASE.DLL",
    "C:\\Windows\\system32\\uxtheme.dll",
    "C:\\Windows\\System32\\combase.dll",
    "C:\\Windows\\system32\\mswsock.dll",
    "C:\\Windows\\System32\\kernel.appcore.dll",
    "C:\\Windows\\System32\\NSI.dll",
    "C:\\Windows\\SYSTEM32\\dhcpcsvc6.DLL",
    "C:\\Windows\\SYSTEM32\\dhcpcsvc.DLL",
    "C:\\Windows\\SYSTEM32\\DNSAPI.dll",
    "C:\\Windows\\system32\\napinsp.dll",
    "C:\\Windows\\system32\\pnrpnsp.dll",
    "C:\\Windows\\System32\\winrnr.dll",
    "C:\\Windows\\system32\\NLAapi.dll",
    "C:\\Windows\\system32\\wshbth.dll",
    "C:\\Windows\\System32\\rasadhlp.dll",
    "C:\\Windows\\System32\\fwpuclnt.dll"
  ]
}